863595 973185
397736 302404
512392 474576
146899 940683
825764 473254
72373 747160
247447 787693
994241 919938
211396 901208
448678 996299
117311 34411
972512 919285
398702 332105
116656 673352
306048 99183
493304 417260
979759 926166
413961 116232
78636 70633
581935 488506
461603 242953
119890 415050
179961 633747
374333 320667
300359 40953
389675 938242
358709 718511
680385 383853
894794 616298
745384 420963
601942 54599
27940 308970
442888 31790
894312 406453
140621 190199
399455 387560
433132 107181
893335 587832
248980 515817
887190 827725
879766 690494
333926 526833
354287 907800
363308 440406
530685 272485
592226 893194
869807 970765
300892 879595
130610 580987
132205 683835
67909 898213
854126 754608
533513 846812
664595 660486
394999 701311
512091 981229
809712 154605
832078 511021
282557 92598
595532 486681
753639 392442
532609 975722
384134 646475
925691 860899
729642 824603
303396 264556
305721 788825
548629 51053
490207 453946
183332 448309
829125 414346
568109 461702
931562 310186
203421 852643
900442 32712
321357 996130
581430 774534
561070 208713
733081 131090
641473 783351
533063 427927
180199 993068
554997 208916
195222 872828
916037 539095
284041 887480
11579 616847
591633 798101
763245 703270
338931 938669
186676 256824
905261 222289
207822 570046
364793 615454
145265 622570
243839 383782
186815 819065
973823 414470
115704 198911
146761 988570
92881 96352
636129 100377
245395 856375
74800 744089
867904 462609
83189 182459
658782 878063
829280 101646
665076 282863
590168 445662
967202 209330
678187 11804
250263 544536
104231 669347
761921 854820
453510 758830
674252 445304
132592 257359
231405 318028
12440 176248
660206 690689
478755 116057
804955 248531
778156 430732
887623 932241
890258 551309
935531 493377
497228 497165
669229 277102
833419 859405
544074 277798
445413 944179
442491 876670
403304 509458
10466 444063
917011 429784
211850 886563
318821 529800
589445 246311
501534 10257
661028 879008
73184 658216
782608 603401
9874 383935
932859 104374
48164 988461
360632 34963
125130 957162
357949 544161
723521 89539
255151 683281
44962 478402
709456 903743
285547 135777
516243 399353
321524 380229
523066 862746
418067 8766
400893 655941
805591 813845
689535 365001
526056 377417
281913 463039
714523 170442
521041 744310
676387 225468
217492 727371
524498 438213
51939 293618
248142 676308
282051 271404
888789 17426
648333 985487
287433 170082
679034 708926
991746 111111
906194 121501
345426 715586
638910 601743
831237 465621
364524 600192
556380 754816
418672 977240
492838 72505
119066 503460
496725 803253
141528 906930
515900 868719
869593 602221
785092 450527
442597 662113
391928 405114
962280 718282
398132 325949
568628 286601
556182 406060
639517 391476
157457 875860
399549 118201
655560 501739
181964 272332
948510 911025
12431 173943
330059 862590
764610 221288
703132 608904
818604 838661
531854 467281
598805 765295
562581 172667
514390 232680
393479 839017
924685 107994
846572 757048
9122 548055
166624 553714
345885 883770
611938 83172
270286 202367
314919 236695
247976 697741
479440 859279
821812 372281
355561 850918
948391 153603
451292 285034
142916 395228
124356 612653
233071 658593
100303 456559
127121 523986
142652 690568
327055 67318
89820 989669
57422 732148
348714 657524
495126 366232
551440 408142
903182 677198
586690 117224
755624 29254
656343 367951
54688 530127
958818 980378
114361 674754
395140 427423
752582 655678
655528 781565
617813 273471
632171 981526
