742318 818041 468
488432 892604 525
388986 347593 423
296635 391573 441
143454 451845 449
683683 508316 509
327227 855045 525
765409 610012 509
61812 991251 525
441949 408174 449
185574 830968 509
913848 108238 525
141061 214880 383
968532 747988 525
186365 850891 525
859532 673967 525
63225 984339 525
813464 178555 509
109322 26344 354
707770 30821 509
82450 126265 354
237668 257667 368
462775 476068 413
302702 742034 509
985266 275141 525
333349 215704 443
252809 261361 363
952126 125248 525
172913 776208 509
246516 912781 525
950455 474224 525
731999 270057 509
143441 111833 375
249257 695099 509
958705 263827 525
904667 966847 507
237597 175625 443
400840 477342 449
628358 542551 509
56671 594745 470
884784 372502 525
805860 144980 509
918332 6655 525
98257 33127 351
723785 744137 424
757910 344299 509
242486 538006 470
539046 762583 509
446037 374093 449
175153 343285 443
177390 241277 443
619433 411217 470
945520 343677 525
93012 10525 351
98980 89606 333
178310 131857 383
887330 582140 525
621425 124439 470
872491 735272 525
582246 150526 470
458587 441416 387
964259 397476 525
439664 683382 509
204385 439003 449
78206 420587 449
303109 559219 470
794145 267575 509
710375 405548 509
708199 537083 509
987620 198494 525
268237 365852 441
831980 843241 525
303839 996826 525
940429 355569 525
203976 702326 509
254094 89965 443
550834 272378 470
939219 549662 525
78879 546429 470
815441 576763 509
720205 761687 424
610370 604072 403
429521 550784 470
378247 631584 509
157864 612300 470
707712 378913 509
623176 260862 470
696312 850564 525
632586 919145 525
52046 699379 509
609831 357088 470
333005 846363 525
969489 288890 525
519495 852324 525
461303 195254 449
462039 278269 449
621738 923445 525
96456 720051 509
423408 700388 509
660277 794884 504
984327 287317 525
56646 523094 470
732079 130721 509
848031 450176 525
937983 513706 525
193052 889370 525
81320 434988 449
146944 282224 443
205460 698599 509
182319 860070 525
946183 962744 414
557157 500334 470
117448 754341 509
345533 952378 525
174362 518589 470
352020 190200 443
467518 595764 470
149505 832387 509
546887 871133 525
571227 951861 525
349550 946266 525
930773 936817 414
539982 587146 452
373087 833488 509
511574 576688 470
394083 408350 405
454965 642375 509
581872 753372 509
960952 292684 525
396734 164467 443
911155 299635 525
469532 509248 426
990885 860817 507
672594 983809 525
337605 822181 509
956618 632243 525
504179 300082 449
741175 245485 509
14855 690714 509
180552 248485 443
939634 106714 525
737077 477621 509
878382 350297 525
713834 927456 525
466731 188034 449
644112 310807 509
372273 856778 525
534810 421974 470
183001 800508 509
780475 377422 509
923742 274842 525
450838 339356 449
555478 546863 421
673627 929530 525
536460 887157 525
737722 557236 509
638148 461105 509
467652 646651 509
871476 888994 445
271516 460528 449
332984 642730 509
349748 66079 443
223715 412701 449
598545 382177 470
588414 90473 470
681801 584190 509
771188 678743 504
944983 41668 525
656179 223795 509
899534 320805 525
298168 240126 407
451808 500788 444
73997 169701 383
344086 247421 407
384018 708335 509
866213 913405 476
382079 899261 525
573414 377381 470
875531 864802 432
139994 174542 383
851479 761777 525
252389 295475 407
558675 10344 470
951582 690476 525
746296 628380 504
207739 245125 443
128191 21728 354
961382 473475 525
62347 444423 449
497068 227226 449
753681 266941 509
744883 444978 509
28896 738716 509
11888 340388 443
329813 341912 366
374768 562188 470
39606 668289 509
397457 642486 509
776360 401597 509
57568 71349 335
430532 624274 470
453818 974942 525
316634 738980 509
5412 814204 509
770619 639514 504
308821 155983 443
598113 353695 470
671874 130324 509
12490 384320 443
854302 684885 525
849934 777391 525
363416 239328 441
567487 72553 470
524050 987022 525
556009 956358 525
120691 801259 509
849013 75439 525
128987 692825 509
330361 160397 443
746715 768672 468
501429 901523 525
493703 665130 509
814911 273764 509
94880 452591 449
858938 496823 525
2830 445951 449
431034 506867 444
40815 843370 525
364781 385677 423
242880 784080 509
470140 102574 449
2922 927242 525
796838 335353 509
981691 517862 525
788779 188162 509
833652 677979 504
252260 684739 509
349572 160058 443
816004 732839 468
179590 177056 347
773025 531385 509
611150 582096 434
910438 620478 525
299812 281386 389
72678 65712 325
491628 954404 525
218136 845080 525
647347 464182 509
911197 379232 525
207024 507204 449
378991 109085 443
640918 120385 509
74931 592180 470
699088 934504 525
421166 788114 509
937258 458145 525
762785 233742 509
781107 264660 509
174343 915497 525
817075 979867 525
912493 860250 476
893873 869802 445
195101 452115 449
232454 25471 443
643415 380480 509
626831 813509 504
625141 318984 470
451568 492884 444
69809 905873 525
817817 927798 525
82200 508759 449
655949 299275 509
790375 642363 504
833473 907700 525
513885 570681 452
275858 962409 525
884629 161142 525
596514 71436 470
698665 425519 509
186503 122710 383
612984 996299 525
886076 639388 525
667995 247857 509
32110 841383 525
919158 827950 525
809330 64374 509
226316 444178 449
381698 269754 441
409393 993299 525
738580 353949 509
515104 29828 470
719889 995920 525
744629 434264 509
434355 686558 509
917163 718952 525
494273 95025 449
623606 877684 525
444444 606355 470
992630 403749 525
