838599 424443
720488 478714
306346 165196
20067 920377
301431 508546
892252 188502
213471 839651
182954 266042
363533 472408
646806 496920
367220 583625
252203 382803
290654 79482
975525 225480
556505 247482
779409 59865
50998 218729
707023 781900
644540 539012
795817 113009
371037 619464
966015 553179
492396 889930
821240 991264
734404 439418
513422 784202
28768 593245
528128 918656
396513 709879
910750 959956
989993 207452
215409 265848
882637 937033
269383 179252
464756 224160
548298 282633
261407 361312
433490 978921
615646 197168
332750 99760
254614 369816
69106 119550
330440 456594
805374 859957
522701 189221
773225 198957
640029 475423
353179 389614
502491 976995
939062 305495
738204 606359
264818 219672
772892 212998
939526 532628
734460 721004
596931 995689
798653 438675
38974 293806
863601 884388
403669 125763
185941 319216
861257 624205
825405 390619
795178 312801
119628 584915
125926 76161
427691 272899
431938 412729
93825 374271
524294 762240
667432 629676
65538 601252
174684 622564
646319 779996
836578 555071
419214 191772
778981 133778
36826 375626
618663 735182
944382 738014
106427 278914
865685 279240
661462 591696
948007 905976
476055 649982
908114 879715
890025 633958
541750 703337
260862 747665
338285 537998
446203 198431
58684 352566
690764 583907
268581 647718
932068 886451
553296 829349
202952 367588
63666 642276
408643 90755
259175 331984
902384 750118
325986 11765
741053 696964
891965 117349
43015 954007
198499 182714
778889 174222
717402 548536
910489 838485
492347 135888
624270 770416
574437 216774
797421 912043
364380 113172
619601 356189
632846 328533
359832 964856
163317 618253
434642 909814
716867 188805
579388 665795
916634 111759
367190 169620
39870 837995
274864 440953
94708 891057
612300 221979
256323 97617
71568 444701
685275 745282
244998 637179
621281 598226
787065 225138
519171 653004
977977 272207
21839 557602
564325 373308
187884 44707
75779 946103
734456 379892
750866 221197
675962 166636
51519 358285
984909 554052
387303 87606
667755 279243
717188 263018
965356 378463
342622 804917
881797 904620
879853 979575
310367 409347
802752 16347
529172 756713
596315 63656
608824 10881
741924 672767
503809 559229
148348 416557
507930 556215
965045 855721
415219 966241
896533 227204
309307 483557
142917 443135
838375 700727
320050 234253
949677 641048
834375 744544
427136 844063
198472 597756
718865 919040
910972 871280
291432 609669
381386 65434
631694 42236
444973 467347
916149 898548
423019 80652
622569 253576
686628 913638
422948 59349
709732 695123
117199 352704
132377 509942
53255 908278
544226 43764
490666 222555
782261 70378
376494 547891
356004 229851
673547 383040
93273 147462
754403 246066
153593 949647
904554 397877
762817 448721
95449 892481
562843 628288
621564 869046
110722 104800
200846 556195
521195 808250
389629 918109
840077 281448
549362 266639
905499 316928
747271 93949
