632300 732170 504
681125 845536 525
286408 679532 509
178065 257096 443
482183 55514 449
102993 438753 449
475688 533837 470
50790 758119 509
970251 21255 525
260146 865045 525
219994 634918 509
571466 128638 470
621452 575016 447
310093 854530 525
834324 53175 509
296235 184927 443
107224 482013 449
689506 639284 442
435096 805547 509
845544 288059 525
874492 989003 507
130886 473569 449
527191 428231 470
537050 291366 470
873565 795186 525
415235 901396 525
845439 547895 525
974438 483714 525
365451 225050 443
511368 887475 525
388330 403836 436
343811 161511 443
83259 540628 470
571584 337369 470
213319 201901 373
177334 212256 373
568272 431258 470
500696 53170 449
832446 211011 509
58252 299467 443
933174 894945 476
976534 441713 525
809439 440493 509
106029 718739 509
338944 961931 525
964453 779595 525
822536 725065 468
538872 246139 470
100817 74449 351
993620 252954 525
102107 235842 443
431131 222126 449
28402 995029 525
685973 532388 509
190814 713213 509
771069 180468 509
388080 959672 525
90681 562776 470
695071 949963 525
30507 231818 443
443476 418576 418
770818 308529 509
993107 829608 525
53705 150314 375
142576 848450 525
104456 763838 509
505993 31644 449
840104 561283 525
284024 695433 509
349803 736580 509
792797 74733 509
458010 918004 525
538856 359561 470
194265 274660 443
516168 169191 470
684438 797575 504
549579 96166 470
208837 998207 525
393637 262459 441
583741 360903 470
819235 901107 525
34624 958448 525
692091 956791 525
532712 726998 509
502113 497204 395
863787 454659 525
988622 441367 525
143675 860954 525
194795 513639 470
113601 566911 470
545366 772930 509
773183 797934 468
166128 89425 383
452880 744155 509
397571 871291 525
183956 367578 443
939073 982887 507
857308 24727 525
102558 42261 351
120509 764089 509
787560 54908 509
591040 350327 470
9576 439432 449
427610 749613 509
466623 278977 449
133227 454550 449
785840 335215 509
232064 39340 443
360202 225964 443
395100 716552 509
420143 380927 449
210160 384038 443
302417 218369 443
333510 923220 525
628048 782801 504
856237 881794 432
863512 402401 525
914513 82944 525
181851 982947 525
842516 542007 525
549495 818489 509
809182 4471 509
958841 592813 525
276369 518629 470
224967 917691 525
297637 426128 449
108927 191621 383
790909 17913 509
323673 127815 443
954360 420412 525
94219 35842 351
541357 599889 452
191094 983597 525
656099 447427 509
828587 348846 509
748679 55427 509
75553 705107 509
818933 266384 509
444671 120416 449
82055 8041 351
249418 138213 443
390789 96481 443
441042 14290 449
644602 20992 509
553138 654649 509
386653 633117 509
38517 558147 470
936505 187518 525
641342 107919 509
117245 328643 443
443922 593385 470
554943 298786 470
492055 714936 509
12064 231259 443
69766 965763 525
871063 267026 525
994393 715176 525
520936 418894 470
716500 370589 509
556213 690908 509
280982 375617 441
614564 739654 509
877347 428256 525
732732 153475 509
799045 953109 525
110540 302126 443
296731 439493 449
228916 411281 449
204775 135560 383
352962 510830 449
73919 71681 294
694383 510118 509
252080 35299 443
806707 63509 509
901185 873954 445
155702 952692 525
941348 899635 507
680679 203412 509
107038 940928 525
256272 596718 470
854988 555700 525
515926 773023 509
473354 950959 525
182975 313947 443
796835 413195 509
161532 133908 383
799948 962478 525
329251 77388 443
921470 200102 525
234709 136435 443
469995 380894 449
688117 41407 509
375343 201908 443
506335 254809 449
532513 784158 509
927978 388167 525
884659 452402 525
187406 827136 509
451678 950296 525
785649 651646 504
920654 894313 476
855065 635268 525
192960 407877 443
752317 427274 509
730226 643235 504
129607 522734 470
56146 866821 525
144858 826502 509
606458 716230 509
